<?xml version="1.0" encoding="UTF-8" standalone="no"?>
<!-- Created with Inkscape (http://www.inkscape.org/) -->

<svg
   xmlns:dc="http://purl.org/dc/elements/1.1/"
   xmlns:cc="http://creativecommons.org/ns#"
   xmlns:rdf="http://www.w3.org/1999/02/22-rdf-syntax-ns#"
   xmlns:svg="http://www.w3.org/2000/svg"
   xmlns="http://www.w3.org/2000/svg"
   xmlns:sodipodi="http://sodipodi.sourceforge.net/DTD/sodipodi-0.dtd"
   xmlns:inkscape="http://www.inkscape.org/namespaces/inkscape"
   width="23.865215"
   height="16.56325"
   id="svg2950"
   version="1.1"
   inkscape:version="0.47 r22583"
   sodipodi:docname="DeadPedestrianS2.svg"
   inkscape:export-filename="C:\Users\Mattht\Documents\Visual Studio 2008\Projects\Low_Life\Low_Life\Content\Sprites\DeadPedb5.png"
   inkscape:export-xdpi="90"
   inkscape:export-ydpi="90">
  <defs
     id="defs2952">
    <inkscape:perspective
       sodipodi:type="inkscape:persp3d"
       inkscape:vp_x="0 : 526.18109 : 1"
       inkscape:vp_y="0 : 1000 : 0"
       inkscape:vp_z="744.09448 : 526.18109 : 1"
       inkscape:persp3d-origin="372.04724 : 350.78739 : 1"
       id="perspective2958" />
    <inkscape:perspective
       id="perspective2926"
       inkscape:persp3d-origin="0.5 : 0.33333333 : 1"
       inkscape:vp_z="1 : 0.5 : 1"
       inkscape:vp_y="0 : 1000 : 0"
       inkscape:vp_x="0 : 0.5 : 1"
       sodipodi:type="inkscape:persp3d" />
  </defs>
  <sodipodi:namedview
     id="base"
     pagecolor="#ffffff"
     bordercolor="#666666"
     borderopacity="1.0"
     inkscape:pageopacity="0.0"
     inkscape:pageshadow="2"
     inkscape:zoom="15.839192"
     inkscape:cx="21.248429"
     inkscape:cy="7.341543"
     inkscape:document-units="px"
     inkscape:current-layer="layer1"
     showgrid="false"
     inkscape:window-width="1378"
     inkscape:window-height="874"
     inkscape:window-x="54"
     inkscape:window-y="-8"
     inkscape:window-maximized="0" />
  <metadata
     id="metadata2955">
    <rdf:RDF>
      <cc:Work
         rdf:about="">
        <dc:format>image/svg+xml</dc:format>
        <dc:type
           rdf:resource="http://purl.org/dc/dcmitype/StillImage" />
        <dc:title></dc:title>
      </cc:Work>
    </rdf:RDF>
  </metadata>
  <g
     inkscape:label="Layer 1"
     inkscape:groupmode="layer"
     id="layer1"
     transform="translate(-352.15464,-379.33159)">
    <g
       id="g2834"
       transform="matrix(0.74152353,-0.67092686,0.67092686,0.74152353,-165.76148,344.19803)">
      <path
         inkscape:export-ydpi="90"
         inkscape:export-xdpi="90"
         inkscape:export-filename="C:\Users\Mattht\Documents\Visual Studio 2008\Projects\Low_Life\Low_Life\Content\Sprites\DeadPed2.png"
         sodipodi:nodetypes="ccccsssssssscc"
         id="path3104"
         d="m 367.15007,383.16745 c -0.11698,-0.11895 -0.29336,-0.30286 -0.429,-0.39016 l -0.29209,-0.21558 0.0124,-0.43497 c 0.0387,-0.62758 0.0377,-0.79793 0.18964,-0.82832 0.0731,-0.0147 0.31673,-0.0607 0.39781,-0.0607 0.0811,0 0.21468,-0.0366 0.32932,-0.0859 0.19933,-0.0857 0.30577,-0.12079 0.52969,-0.0557 0.20431,0.0594 0.34535,0.19872 0.61413,0.49688 0.33903,0.37607 0.32168,0.50508 0.12544,0.8562 -0.15587,0.27888 -0.43913,0.59593 -0.78718,0.77881 -0.16292,0.0856 -0.34922,0.0268 -0.35845,0.0268 -0.009,0 -0.21477,0.0315 -0.33174,-0.0874 l 0,0 z"
         style="fill:#d38d5f;fill-opacity:1;stroke:#d38d5f;stroke-width:0.04285892" />
      <path
         inkscape:export-ydpi="90"
         inkscape:export-xdpi="90"
         inkscape:export-filename="C:\Users\Mattht\Documents\Visual Studio 2008\Projects\Low_Life\Low_Life\Content\Sprites\DeadPed2.png"
         sodipodi:nodetypes="csssscccsssccc"
         id="path3112"
         d="m 363.20285,397.53593 c -0.20319,-0.21057 -0.42319,-0.44992 -0.53072,-0.66752 -0.0877,-0.17761 -0.16491,-0.46966 -0.16491,-0.49189 0,-0.0222 0.17948,-0.1617 0.3268,-0.19862 0.20794,-0.0521 0.42748,-0.0654 0.77682,-0.0409 0.24751,0.0174 0.54208,0.0213 0.64151,0.009 l 0.43792,-0.007 -0.074,0.236 c -0.0231,0.0797 -0.0815,0.32172 -0.12992,0.49852 -0.16796,0.61344 -0.25163,0.79288 -0.32963,0.79288 -0.0407,0 -0.2133,0.0926 -0.25906,0.12725 -0.15281,0.11558 -0.38487,0.0636 -0.69478,-0.25755 l 1e-5,2e-5 -1e-5,-2e-5 z"
         style="fill:#d38d5f;fill-opacity:1;stroke:#d38d5f;stroke-width:0.04285892" />
      <path
         inkscape:export-ydpi="90"
         inkscape:export-xdpi="90"
         inkscape:export-filename="C:\Users\Mattht\Documents\Visual Studio 2008\Projects\Low_Life\Low_Life\Content\Sprites\DeadPed2.png"
         sodipodi:nodetypes="cssssssscccsscccccc"
         id="path3114"
         d="m 357.78172,386.46068 c -0.0503,-0.0503 -0.26119,-0.13476 -0.39672,-0.20743 -0.19217,-0.10305 -0.29478,-0.19602 -0.37127,-0.34643 -0.15301,-0.30087 -0.19619,-0.49109 -0.2567,-1.15953 -0.0393,-0.43382 -0.0669,-0.6355 -0.12744,-0.77235 -0.0478,-0.10822 -0.14246,-0.24326 -0.15782,-0.31319 -0.0176,-0.0801 -0.13495,-0.13632 -0.20797,-0.17036 -0.10903,-0.0509 0.0982,-0.26496 0.17891,-0.2981 0.85042,-0.34935 1.04795,-0.47449 1.34059,-0.67036 l 0.44893,-0.25378 0.2276,0.20535 c 0.0633,0.0747 0.25245,0.2295 0.28281,0.27209 0.0303,0.0426 0.11359,0.46609 0.17185,0.89527 0.11926,0.87834 0.007,0.99966 0.12838,1.19852 l 0.10117,0.21932 -0.0832,0.36999 c -0.11986,0.25813 -0.2784,0.38413 -0.72997,0.8702 l -0.32922,0.28966 -0.21993,-0.12887 z"
         style="fill:#d38d5f;fill-opacity:1;stroke:#d38d5f;stroke-width:0.04285892" />
      <path
         inkscape:export-ydpi="90"
         inkscape:export-xdpi="90"
         inkscape:export-filename="C:\Users\Mattht\Documents\Visual Studio 2008\Projects\Low_Life\Low_Life\Content\Sprites\DeadPed2.png"
         sodipodi:nodetypes="csscccssssssssccc"
         id="path3116"
         d="m 361.23453,383.3906 c -0.0999,-0.12036 -0.56232,-0.4226 -0.73543,-0.46893 -0.24354,-0.0651 -0.65315,-0.45145 -0.78263,-0.78752 -0.11423,-0.29649 -0.18114,-1.03777 -0.13061,-1.71181 l 0.0891,-0.51083 0.49998,-0.084 c 0.19247,-0.0373 0.60706,-0.10875 0.9213,-0.15863 0.53078,-0.0842 0.71431,-0.0214 0.76271,0.0448 0.0286,0.0391 0.19463,0.31773 0.2968,0.59278 0.10217,0.27507 0.24111,0.58305 0.30875,0.68441 0.0866,0.12973 0.0641,0.28045 0.0641,0.40716 8e-5,0.19199 0.0716,0.18188 0.35909,0.61342 0.10029,0.15057 0.24696,0.48944 0.24081,0.52388 -0.0179,0.0997 -0.67504,0.5568 -1.05214,0.75577 -0.53653,0.2831 -0.78246,0.17109 -0.84192,0.0994 l 0,0 0,0 z"
         style="fill:#d38d5f;fill-opacity:1;stroke:#d38d5f;stroke-width:0.04285892" />
      <path
         inkscape:export-ydpi="90"
         inkscape:export-xdpi="90"
         inkscape:export-filename="C:\Users\Mattht\Documents\Visual Studio 2008\Projects\Low_Life\Low_Life\Content\Sprites\DeadPed2.png"
         sodipodi:nodetypes="cssssssscccc"
         id="path3126"
         d="m 370.11825,394.79872 c -0.11056,-0.12265 -0.14981,-0.24041 -0.37058,-0.65555 -0.10341,-0.19447 -0.27102,-0.54736 -0.29321,-0.57864 -0.0222,-0.0313 0.3074,-0.38115 0.3074,-0.38642 0,-0.006 0.22904,0.007 0.35728,-6.6e-4 0.26602,-0.0141 0.37336,-0.0925 0.50879,-0.17745 0.14902,-0.0935 0.34605,0.35513 0.30233,0.50479 -0.0356,0.12212 -0.0149,0.6374 -0.0175,0.87948 -9.5e-4,0.12383 -0.005,0.37958 -0.0125,0.44921 l -0.47021,0.28262 -0.30482,-0.30786 -0.007,-0.01 z"
         style="fill:#d38d5f;fill-opacity:1;stroke:#d38d5f;stroke-width:0.02142945" />
      <path
         inkscape:export-ydpi="90"
         inkscape:export-xdpi="90"
         inkscape:export-filename="C:\Users\Mattht\Documents\Visual Studio 2008\Projects\Low_Life\Low_Life\Content\Sprites\DeadPed2.png"
         sodipodi:nodetypes="cc"
         id="path3035"
         d="m 369.13259,382.00575 c -0.48862,1.26735 -0.91427,1.27666 -1.74494,1.692"
         style="color:#000000;fill:none;stroke:#660080;stroke-width:0.68574261999999997px;stroke-linecap:butt;stroke-linejoin:miter;stroke-miterlimit:4;stroke-opacity:1;stroke-dasharray:none;stroke-dashoffset:0;marker:none;visibility:visible;display:inline;overflow:visible;enable-background:accumulate" />
      <path
         inkscape:export-ydpi="90"
         inkscape:export-xdpi="90"
         inkscape:export-filename="C:\Users\Mattht\Documents\Visual Studio 2008\Projects\Low_Life\Low_Life\Content\Sprites\DeadPed2.png"
         id="path3037"
         d="m 362.74182,395.88498 c 0.44018,-0.20972 1.25639,-0.12987 1.86164,-0.12987"
         style="color:#000000;fill:none;stroke:#ff0000;stroke-width:0.68574262px;stroke-linecap:butt;stroke-linejoin:miter;stroke-miterlimit:4;stroke-opacity:1;stroke-dasharray:none;stroke-dashoffset:0;marker:none;visibility:visible;display:inline;overflow:visible;enable-background:accumulate" />
      <path
         inkscape:export-ydpi="90"
         inkscape:export-xdpi="90"
         inkscape:export-filename="C:\Users\Mattht\Documents\Visual Studio 2008\Projects\Low_Life\Low_Life\Content\Sprites\DeadPed2.png"
         id="path3039"
         d="m 370.75121,392.98429 c -0.51883,0.0602 -1.15128,0.21646 -1.64517,0.21646"
         style="color:#000000;fill:none;stroke:#ff0000;stroke-width:0.68574262px;stroke-linecap:butt;stroke-linejoin:miter;stroke-miterlimit:4;stroke-opacity:1;stroke-dasharray:none;stroke-dashoffset:0;marker:none;visibility:visible;display:inline;overflow:visible;enable-background:accumulate" />
      <path
         inkscape:export-ydpi="90"
         inkscape:export-xdpi="90"
         inkscape:export-filename="C:\Users\Mattht\Documents\Visual Studio 2008\Projects\Low_Life\Low_Life\Content\Sprites\DeadPed2.png"
         sodipodi:nodetypes="cssssssssssssssssssssssssssssssc"
         id="path3059"
         d="m 367.85051,383.89254 c 0.10128,0.0876 0.70756,0.89432 0.51953,1.08235 -0.38495,0.38494 -0.82544,0.86873 -1.25553,1.29882 -0.30421,0.30421 -0.38478,0.86102 -0.77929,1.25552 -0.12068,0.12068 -0.0822,0.42857 -0.21647,0.56282 -0.20009,0.2001 -0.24107,2.70884 -0.60612,3.07389 -0.48193,0.48194 -1.48759,1.71966 -1.81835,2.38117 -0.021,0.042 -0.97807,1.28112 -0.99576,1.29882 -0.16801,0.168 -0.16156,0.85427 -0.25976,0.95247 -0.009,0.008 -0.0993,0.1172 -0.0433,0.17317 0.11311,0.1131 0.62304,-0.12988 0.69271,-0.12988 0.32535,0 1.05743,0.14234 1.34211,0 0.17275,-0.0864 0.28366,-0.15377 0.38965,-0.25976 0.24771,-0.24771 0.31183,-0.57159 0.56283,-0.82259 0.45703,-0.45704 0.93142,-1.0613 1.38541,-1.5153 0.10526,-0.10526 1.77388,-0.12987 2.07811,-0.12987 0.24156,0 1.36156,0.15372 1.51529,0 0.20204,-0.20204 0.66384,-0.14432 0.86587,-0.34635 0.0837,-0.0836 0.32109,-0.10462 0.38965,-0.17318 0.46979,-0.46979 1.01275,-0.76996 1.34212,-1.4287 0.081,-0.16201 -0.0263,-0.62316 0.0866,-0.736 0.11921,-0.11921 -0.0233,-0.53952 0.0866,-0.64942 0.48875,-0.48875 -1.10666,-4.3537 -1.29882,-4.54587 -0.0978,-0.0978 -0.0525,-0.39879 -0.17318,-0.51953 -0.25522,-0.25523 -0.51324,-0.55654 -0.77929,-0.82258 -0.26149,-0.26148 -0.68591,-0.38284 -0.90917,-0.60612 -0.10158,-0.10157 -0.11488,-0.46687 -0.16745,-0.52327 -0.21682,-0.23264 -1.21331,0.95621 -1.86738,0.95621 -0.0655,0 -0.25976,0.206 -0.25976,-0.0866 0,-0.20312 0.15024,0.15281 0.21647,0.0866 0.11934,-0.11933 0.37179,-0.15532 0.51953,-0.30306 0.34992,-0.34991 0.9319,-0.0346 0.9319,-0.72007"
         style="color:#000000;fill:#660080;stroke:#660080;stroke-width:0.68574261999999997px;stroke-linecap:butt;stroke-linejoin:miter;stroke-miterlimit:4;stroke-opacity:1;stroke-dasharray:none;stroke-dashoffset:0;marker:none;visibility:visible;display:inline;overflow:visible;enable-background:accumulate" />
      <path
         inkscape:export-ydpi="90"
         inkscape:export-xdpi="90"
         inkscape:export-filename="C:\Users\Mattht\Documents\Visual Studio 2008\Projects\Low_Life\Low_Life\Content\Sprites\DeadPed2.png"
         sodipodi:nodetypes="cssscccccsssscccc"
         id="path3061"
         d="m 370.94653,395.04234 c -0.0727,-0.0189 -0.0429,-0.0767 -0.0304,-0.82641 0.0157,-0.94721 -0.009,-1.23783 0.2922,-1.37621 0.0952,-0.0439 0.50289,-0.33167 0.61004,-0.4342 0.10716,-0.10254 0.42041,-0.29653 0.52287,-0.34774 l 0.5236,-0.0379 0.4124,0.20933 0.43644,0.52405 -0.35333,0.13495 c 0.004,0.12651 0.38178,0.67002 0.40983,0.755 0.0461,0.13988 0.18678,0.37187 -0.26952,0.45125 -0.3212,0.0559 -0.48281,0.64382 -0.7548,0.9376 -0.19981,0.21581 -0.46946,0.32514 -0.68684,0.36879 -0.24616,0.0494 -0.6002,-0.1399 -0.74809,-0.17822 l 0.13462,0.0471 -0.49896,-0.22726 -2e-5,-10e-5 z"
         style="fill:#550000;stroke:#550000;stroke-width:0.04329405;display:inline" />
      <path
         inkscape:export-ydpi="90"
         inkscape:export-xdpi="90"
         inkscape:export-filename="C:\Users\Mattht\Documents\Visual Studio 2008\Projects\Low_Life\Low_Life\Content\Sprites\DeadPed2.png"
         sodipodi:nodetypes="csssssssssccccccssssscccsssssssccccc"
         id="path3063"
         d="m 362.08195,388.80421 c -0.15875,-0.0941 -0.40531,-0.11794 -1.01905,-0.2606 -1.01327,-0.23554 -1.20188,-0.21739 -1.4094,-0.37719 -0.0881,-0.0679 -0.29104,-0.31864 -0.46958,-0.4231 -0.30551,-0.17876 -0.83079,-0.59891 -0.83079,-0.67258 0,-0.0184 0.23921,-0.33398 0.47136,-0.58101 0.43171,-0.45935 0.61468,-0.7644 0.67015,-1.06339 0.0283,-0.15275 0.1798,-0.28085 0.28451,-0.2541 0.67002,0.17109 1.06354,0.22091 1.33668,0.0966 0.21918,-0.0997 0.60116,-0.45222 0.67035,-0.66189 0.0304,-0.0923 0.0274,-0.21608 0.0134,-0.35077 l -0.0846,-0.31621 0.44344,-0.23212 c 0.4239,-0.21322 0.67295,-0.412 0.86174,-0.59315 0.0214,-0.004 0.24928,-0.15158 0.30194,-0.2804 l 0.24404,0.208 c 0.13612,0.10057 0.0613,0.15497 1.11486,0.15497 1.21077,0 1.33376,-0.17651 1.57137,-0.41412 0.15522,-0.15522 0.36263,-0.0474 0.26214,0.12834 -0.034,0.0595 -0.19399,0.24439 -0.19489,0.25997 -6.8e-4,0.0156 0.30899,-0.16513 0.43525,-0.0938 0.22382,0.12633 0.26181,0.43517 0.76881,1.10478 l 0.2984,0.38767 -0.18377,0.25008 c -0.0802,0.0834 -0.27035,0.27978 -0.44104,0.40869 -0.17067,0.1289 -0.45787,0.32163 -0.56415,0.44677 -0.56724,0.66802 -0.99109,1.63922 -1.20311,2.60656 -0.0418,0.19049 -0.15753,0.5652 -0.16459,0.59191 -0.009,0.0331 -0.26797,-0.0925 -0.43963,-0.15095 -0.31651,-0.10769 -0.43095,0.15396 -1.2432,0.33466 -0.31753,0.0706 -0.75589,-0.0674 -0.91056,-0.0541 -0.25709,0.0221 -0.38139,-0.0721 -0.58066,-0.19009 l 0.0663,0.0663 -0.0758,-0.0757 0,0 -10e-6,-2e-5 z"
         style="fill:#000000;stroke:#000000;stroke-width:0.04329405;display:inline" />
      <path
         inkscape:export-ydpi="90"
         inkscape:export-xdpi="90"
         inkscape:export-filename="C:\Users\Mattht\Documents\Visual Studio 2008\Projects\Low_Life\Low_Life\Content\Sprites\DeadPed2.png"
         sodipodi:nodetypes="cssscccssssscc"
         id="path3065"
         d="m 359.22677,378.91849 c -0.18862,-0.23075 -0.48488,-0.56768 -0.58631,-0.68326 -0.208,-0.23703 -0.44357,-0.7716 -0.4876,-1.0063 -0.0268,-0.14321 0.12641,-0.29047 0.24827,-0.35349 0.0732,-0.0378 0.30573,-0.0961 0.47108,-0.15576 l 0.34351,-0.071 0.37475,0.0901 c 0.33977,0.12713 0.82016,0.50802 1.12761,0.86518 0.47727,0.55444 0.98152,1.28514 0.99501,1.34407 0.0174,0.076 -0.22827,0.18976 -0.96916,0.29733 -0.34528,0.0501 -0.68661,0.1108 -0.77928,0.12108 -0.0857,0.01 -0.29443,0.044 -0.3161,0.0302 -0.10072,-0.0641 -0.23317,-0.24747 -0.42178,-0.47822 l 0,0 z"
         style="fill:#000000;stroke:#000000;stroke-width:0.04329405;display:inline" />
      <path
         inkscape:export-ydpi="90"
         inkscape:export-xdpi="90"
         inkscape:export-filename="C:\Users\Mattht\Documents\Visual Studio 2008\Projects\Low_Life\Low_Life\Content\Sprites\DeadPed2.png"
         sodipodi:nodetypes="csscccssssssccc"
         id="path3067"
         d="m 355.06703,382.9387 c -0.22328,-0.044 -0.52039,-0.16985 -0.56202,-0.20754 -0.0991,-0.0897 -0.40649,-0.77985 -0.41298,-0.95846 -0.004,-0.10838 0.0507,-0.29005 0.26381,-0.57262 l 0.38098,-0.41291 1.18805,0.008 c 0.82599,0.0172 1.1457,-0.021 1.23503,0.0218 0.0675,0.0323 0.33314,0.24484 0.46991,0.43517 0.25777,0.35869 0.53364,0.58524 0.45212,0.58524 -0.0267,0 -0.34699,0.18345 -0.43914,0.27559 -0.0922,0.0922 -0.34748,0.20451 -0.50853,0.28905 -0.29042,0.15243 -1.41987,0.91433 -1.61646,0.6103 -0.0134,-0.0208 -0.22749,-0.0301 -0.45077,-0.0741 l 0,0 0,0 z"
         style="fill:#000000;stroke:#000000;stroke-width:0.04329405;display:inline" />
      <path
         inkscape:export-ydpi="90"
         inkscape:export-xdpi="90"
         inkscape:export-filename="C:\Users\Mattht\Documents\Visual Studio 2008\Projects\Low_Life\Low_Life\Content\Sprites\DeadPed2.png"
         id="path2899"
         d="m 359.1348,376.38134 c 1.44698,0.31793 1.85821,1.42963 2.69398,2.2654 0.13266,0.13265 -0.0715,0.60207 0.0612,0.73473 0.4147,0.41469 0.40503,1.20098 0.79595,1.5919 0.12245,0.12245 0,0.48981 0.12245,0.61227 0.33828,0.33828 0.50749,0.93607 0.85718,1.28576 0.11666,0.11667 0.71615,0.0613 0.91841,0.0613 0.46057,0 1.22786,0.0579 1.46944,-0.18369 0.3225,-0.32249 -0.008,-1.21699 0.36737,-1.5919 0.17348,-0.17347 0.6837,-0.0102 0.85717,-0.18367 0.21274,-0.21274 0.92096,0.003 1.04087,0.12245 0.56585,0.56585 1.00934,1.19303 1.5919,1.77558 0.14286,0.14287 0.40818,0.16327 0.55104,0.30613 0.4826,0.48261 1.07999,0.95754 1.53068,1.40823 0.23547,0.23547 0.0616,0.98008 0.30613,1.22453 0.52838,0.52839 0.75386,2.59067 0.97963,2.81645 0.0217,0.0217 -0.0357,2.60725 -0.0612,2.63276 -0.13325,0.13325 -0.42859,0.54808 -0.42859,0.61227 0,0.28519 0.76211,0.39474 0.91841,0.55105 0.0433,0.0433 0,0.36057 0,0.42858 0,0.34896 0.22075,0.47692 0.0612,0.79596 -0.2516,0.50318 -0.78439,1.15174 -1.16332,1.53067 -0.24902,0.24902 -0.7554,0.24491 -0.97963,0.24491 -1.80592,0 -1.54927,-1.1819 -2.38786,-2.02049 -0.14474,-0.14475 -0.91339,-0.0612 -1.1633,-0.0612 -0.0877,0 -0.49524,-0.0559 -0.55105,0 -0.24491,0.24491 -0.85719,0.12245 -1.10209,0.36737 -0.15307,0.15306 -0.15307,0.4592 -0.30614,0.61227 -0.27552,0.27552 -0.64288,0.4592 -0.9184,0.73472 -0.20614,0.20615 -0.67979,2.63905 -0.91841,2.87767 -0.0408,0.0408 -0.20409,-0.0408 -0.2449,0 -0.67189,0.67189 -1.77559,-1.09759 -1.77559,-1.65313 0,-0.29776 0.85822,-2.81748 0.97963,-2.9389 0.36228,-0.36227 0.74053,-0.61805 1.04086,-0.9184 0.46044,-0.46044 0.68186,-1.17167 1.16331,-1.65313 0.16778,-0.16777 0.18369,-0.51941 0.18369,-0.85718 0,-0.24347 -0.20053,-0.3842 -0.30614,-0.48982 -0.11224,-0.11225 -0.19388,-0.25511 -0.30613,-0.36736 -0.56217,-0.56217 -2.44201,0.61935 -3.06135,0 -0.19267,-0.19267 -2.07045,-0.41732 -2.32662,-0.6735 -0.27369,-0.27369 -0.83969,-0.47233 -1.10209,-0.73472 -0.29104,-0.29103 -0.60881,-0.67003 -0.9184,-0.97963 -0.14286,-0.14287 -0.40819,-0.16327 -0.55104,-0.30613 -0.25905,-0.25904 -0.48982,-0.92835 -0.48982,-1.40823 0,-0.35889 -6.3e-4,-0.79658 -0.18369,-0.97963 -0.0595,-0.0596 -0.12072,-0.30441 -0.0612,-0.24491 0.0817,0.0817 -0.43289,-0.18797 -0.55105,-0.30613 -0.32654,-0.32655 -1.1429,-0.16328 -1.46945,-0.48982 -0.0931,-0.0931 -0.66162,-1.23641 -0.36735,-1.53067 0.2347,-0.23471 0.37756,-0.56126 0.61227,-0.79596 0.12804,-0.12804 2.76688,-0.0496 2.87766,0.0613 0.52576,0.52576 0.92968,1.41949 1.40822,1.89803 0.26033,0.26032 0.17326,1.88762 0.48983,2.20417 0.0899,0.0899 1.51308,0.5074 1.77557,0.24492 0.10555,-0.10556 0.24678,-0.2468 0.36736,-0.36737 0.52114,-0.52114 -0.70604,-1.46945 -0.97963,-1.46945 -0.22977,0 -0.42661,-0.24293 -0.55104,-0.36735 -0.99021,-0.99022 -0.28303,-3.09948 -0.48981,-3.30626 -0.37918,-0.37918 -0.63353,-0.81721 -1.04086,-1.22455 -0.074,-0.074 -0.68875,-1.08683 -0.36737,-1.40822 0.22846,-0.22846 0.62233,-0.31116 1.10209,-0.48981 z"
         style="color:#000000;fill:none;stroke:#000000;stroke-width:0.68574262px;stroke-linecap:butt;stroke-linejoin:miter;stroke-miterlimit:4;stroke-opacity:1;stroke-dasharray:none;stroke-dashoffset:0;marker:none;visibility:visible;display:inline;overflow:visible;enable-background:accumulate" />
      <path
         inkscape:export-ydpi="90"
         inkscape:export-xdpi="90"
         inkscape:export-filename="C:\Users\Mattht\Documents\Visual Studio 2008\Projects\Low_Life\Low_Life\Content\Sprites\DeadPed2.png"
         sodipodi:nodetypes="cssc"
         id="path2913"
         d="m 366.23023,382.77497 c 0.72917,0.26377 1.30029,1.14493 1.78247,1.62711 0.36504,0.36503 -0.88778,1.1327 -0.97963,1.22454 -0.87685,0.87685 -1.53067,2.5097 -1.53067,3.91853"
         style="color:#000000;fill:none;stroke:#000000;stroke-width:0.68574262px;stroke-linecap:butt;stroke-linejoin:miter;stroke-miterlimit:4;stroke-opacity:1;stroke-dasharray:none;stroke-dashoffset:0;marker:none;visibility:visible;display:inline;overflow:visible;enable-background:accumulate" />
      <path
         inkscape:export-ydpi="90"
         inkscape:export-xdpi="90"
         inkscape:export-filename="C:\Users\Mattht\Documents\Visual Studio 2008\Projects\Low_Life\Low_Life\Content\Sprites\DeadPed2.png"
         sodipodi:nodetypes="cc"
         id="path2915"
         d="m 361.6451,379.32023 c -0.63766,0.13553 -1.69674,0.22004 -2.04498,0.39416"
         style="color:#000000;fill:none;stroke:#000000;stroke-width:0.68574262px;stroke-linecap:butt;stroke-linejoin:miter;stroke-miterlimit:4;stroke-opacity:1;stroke-dasharray:none;stroke-dashoffset:0;marker:none;visibility:visible;display:inline;overflow:visible;enable-background:accumulate" />
      <path
         inkscape:export-ydpi="90"
         inkscape:export-xdpi="90"
         inkscape:export-filename="C:\Users\Mattht\Documents\Visual Studio 2008\Projects\Low_Life\Low_Life\Content\Sprites\DeadPed2.png"
         sodipodi:nodetypes="cc"
         id="path2917"
         d="m 358.15332,381.9618 c -0.63434,0.76972 -1.83625,0.97148 -2.69215,1.39942"
         style="color:#000000;fill:none;stroke:#000000;stroke-width:0.68574262px;stroke-linecap:butt;stroke-linejoin:miter;stroke-miterlimit:4;stroke-opacity:1;stroke-dasharray:none;stroke-dashoffset:0;marker:none;visibility:visible;display:inline;overflow:visible;enable-background:accumulate" />
      <path
         inkscape:export-ydpi="90"
         inkscape:export-xdpi="90"
         inkscape:export-filename="C:\Users\Mattht\Documents\Visual Studio 2008\Projects\Low_Life\Low_Life\Content\Sprites\DeadPed2.png"
         sodipodi:nodetypes="cc"
         id="path2919"
         d="m 359.41697,385.0465 c -0.10092,0.81888 -1.0628,1.40664 -1.32304,1.92712"
         style="color:#000000;fill:none;stroke:#000000;stroke-width:0.68574262px;stroke-linecap:butt;stroke-linejoin:miter;stroke-miterlimit:4;stroke-opacity:1;stroke-dasharray:none;stroke-dashoffset:0;marker:none;visibility:visible;display:inline;overflow:visible;enable-background:accumulate" />
      <path
         inkscape:export-ydpi="90"
         inkscape:export-xdpi="90"
         inkscape:export-filename="C:\Users\Mattht\Documents\Visual Studio 2008\Projects\Low_Life\Low_Life\Content\Sprites\DeadPed2.png"
         id="path2921"
         d="m 363.23699,382.6265 c -0.48406,0.61707 -1.24221,0.89662 -1.89803,1.22454"
         style="color:#000000;fill:none;stroke:#000000;stroke-width:0.68574262px;stroke-linecap:butt;stroke-linejoin:miter;stroke-miterlimit:4;stroke-opacity:1;stroke-dasharray:none;stroke-dashoffset:0;marker:none;visibility:visible;display:inline;overflow:visible;enable-background:accumulate" />
      <path
         inkscape:export-ydpi="90"
         inkscape:export-xdpi="90"
         inkscape:export-filename="C:\Users\Mattht\Documents\Visual Studio 2008\Projects\Low_Life\Low_Life\Content\Sprites\DeadPed2.png"
         sodipodi:nodetypes="cc"
         id="path2923"
         d="m 372.7982,391.83942 c -1.96014,0.86239 -1.8466,1.62852 -1.8466,3.58352"
         style="color:#000000;fill:none;stroke:#000000;stroke-width:0.68574262px;stroke-linecap:butt;stroke-linejoin:miter;stroke-miterlimit:4;stroke-opacity:1;stroke-dasharray:none;stroke-dashoffset:0;marker:none;visibility:visible;display:inline;overflow:visible;enable-background:accumulate" />
      <path
         sodipodi:nodetypes="cc"
         transform="translate(353.50388,376.03847)"
         id="path2970"
         d="m 14.236837,8.371968 c 0.440114,0.5412687 1.909679,1.3886773 2.304411,1.925604"
         style="color:#000000;fill:none;stroke:#000000;stroke-width:1px;stroke-linecap:butt;stroke-linejoin:miter;stroke-miterlimit:4;stroke-opacity:1;stroke-dasharray:none;stroke-dashoffset:0;marker:none;visibility:visible;display:inline;overflow:visible;enable-background:accumulate" />
    </g>
  </g>
</svg>
